<?xml version="1.0" encoding="UTF-8" standalone="no"?>
<!DOCTYPE svg PUBLIC "-//W3C//DTD SVG 1.1//EN" "http://www.w3.org/Graphics/SVG/1.1/DTD/svg11.dtd">
<svg width="100%" height="100%" viewBox="0 0 66 40" version="1.1" xmlns="http://www.w3.org/2000/svg" xmlns:xlink="http://www.w3.org/1999/xlink" xml:space="preserve" xmlns:serif="http://www.serif.com/" style="fill-rule:evenodd;clip-rule:evenodd;stroke-linejoin:round;stroke-miterlimit:2;">
    <g transform="matrix(1,0,0,1,-820.5,-312.279)">
        <g id="圖層-1" serif:id="圖層 1">
        </g>
        <g>
            <g transform="matrix(1,0,0,1,56.4454,0)">
                <g transform="matrix(0.8,0,0,0.8,-6.32091,69.7061)">
                    <g transform="matrix(0.884528,0,0,0.884528,740.486,61.1069)">
                        <path d="M308.055,211.891C370.451,211.891 421.109,262.549 421.109,324.945C421.109,387.342 370.451,438 308.055,438C245.658,438 195,387.342 195,324.945C195,262.549 245.658,211.891 308.055,211.891ZM308.055,213.304C369.671,213.304 419.696,263.329 419.696,324.945C419.696,386.562 369.671,436.587 308.055,436.587C246.438,436.587 196.413,386.562 196.413,324.945C196.413,263.329 246.438,213.304 308.055,213.304Z" style="fill:white;"/>
                    </g>
                    <g transform="matrix(0.0476891,0,0,0.047221,962.969,303.216)">
                        <g>
                            <g transform="matrix(1,0,0,1,257.811,856.181)">
                                <path d="M0,-653.513C-1.969,-646.478 -2.962,-639.265 -2.962,-631.952L-2.962,-203.78C-7.003,-209.038 -10.946,-214.253 -14.782,-219.412C-118.931,-359.464 -159.026,-470.351 -174.322,-538.712C-183.221,-578.483 -186.187,-615.344 -182.901,-645.31C-180.08,-671.032 -172.58,-691.506 -161.782,-702.961C-153.334,-711.923 -142.409,-716.37 -128.671,-716.37C-122.545,-716.37 -115.858,-715.485 -108.586,-713.721C-85.69,-708.171 -62.638,-695.039 -47.414,-685.056L0,-653.513ZM1143.91,-631.952L1143.91,-114.534C1125.85,-92.783 1073.73,-35.076 988.976,18.723C873.492,92.032 745.046,129.202 607.208,129.202C469.355,129.202 340.897,92.024 225.404,18.702C140.661,-35.098 88.555,-92.788 70.504,-114.534L70.504,-631.952C70.504,-636.201 73.876,-639.943 78.02,-640.294C171.725,-648.21 248.904,-680.328 323.583,-711.406C407.82,-746.464 494.925,-782.716 607.208,-782.716C719.492,-782.716 806.595,-746.464 890.875,-711.388C965.511,-680.327 1042.69,-648.209 1136.39,-640.294C1140.54,-639.943 1143.91,-636.201 1143.91,-631.952M1214.41,-653.513L1261.66,-684.949C1292.72,-705.304 1349.04,-734.468 1377.63,-701.371C1405.93,-668.614 1406.02,-588.674 1377.85,-497.714C1349.44,-406.025 1293,-302.944 1217.38,-203.975L1217.38,-631.952C1217.38,-639.266 1216.38,-646.48 1214.41,-653.513M1433.22,-749.404C1422.89,-761.356 1400.06,-782.28 1363.19,-788.123C1321.43,-794.745 1273.66,-780.665 1221.13,-746.222L1164.43,-708.496C1157.4,-711.188 1150.08,-712.866 1142.58,-713.5C1060.29,-720.452 991.689,-749.006 919.059,-779.235C828.16,-817.065 734.167,-856.182 607.208,-856.182C480.249,-856.182 386.255,-817.065 295.355,-779.235C222.727,-749.006 154.126,-720.453 71.833,-713.499C64.332,-712.865 57.017,-711.188 49.987,-708.496L-6.924,-746.357C-57.762,-779.694 -104.406,-793.858 -145.544,-788.454C-181.897,-783.68 -204.815,-764.413 -215.24,-753.353C-236.123,-731.201 -249.509,-700.147 -255.026,-661.056C-260.504,-622.24 -257.894,-577.439 -247.268,-527.898C-223.809,-418.519 -163.802,-296.687 -73.734,-175.572C-49.59,-143.105 -23.053,-110.501 5.153,-78.654C12.407,-68.985 63.516,-3.151 157.275,62.235C249.147,126.3 401.784,202.669 607.208,202.669C812.63,202.669 965.267,126.3 1057.14,62.235C1150.94,-3.176 1202.01,-68.989 1209.27,-78.668C1268.79,-145.874 1319.93,-215.577 1361.27,-285.859C1399.78,-351.326 1428.92,-415.703 1447.88,-477.199C1484.75,-596.742 1479.4,-695.957 1433.22,-749.404" style="fill:white;fill-rule:nonzero;"/>
                            </g>
                            <g transform="matrix(1,0,0,1,1259.36,291.935)">
                                <path d="M0,8.446C-60.183,4.427 -110.442,-12.107 -163.669,-29.617C-230.888,-51.726 -300.395,-74.588 -394.344,-74.588C-488.296,-74.588 -557.804,-51.726 -625.035,-29.612C-678.247,-12.107 -728.507,4.427 -788.69,8.446C-808.898,9.799 -824.242,27.339 -822.892,47.546C-821.546,67.701 -804.036,83.034 -783.833,81.753L-783.792,81.75C-714.366,77.113 -657.282,58.336 -602.074,40.175C-540.351,19.872 -476.526,-1.122 -394.344,-1.122C-312.161,-1.122 -248.338,19.872 -186.61,40.177C-131.406,58.336 -74.322,77.113 -4.874,81.751C-4.022,81.807 -3.221,81.834 -2.425,81.834C16.831,81.834 32.921,66.773 34.205,47.546C35.555,27.339 20.211,9.799 0,8.446" style="fill:white;fill-rule:nonzero;"/>
                            </g>
                            <g transform="matrix(1,0,0,1,1283.24,847.723)">
                                <path d="M0,-177.12C-14.094,-191.61 -37.375,-191.956 -51.844,-177.947C-52.159,-177.646 -84.14,-147.56 -145.636,-117.868C-201.605,-90.845 -294.328,-58.631 -418.217,-58.631C-542.064,-58.631 -634.763,-90.822 -690.719,-117.828C-751.66,-147.24 -783.605,-177.019 -784.551,-177.91C-799.044,-191.954 -822.281,-191.641 -836.393,-177.197C-843.249,-170.179 -846.96,-160.909 -846.844,-151.097C-846.727,-141.285 -842.797,-132.106 -835.778,-125.252C-831.831,-121.397 -795.204,-86.605 -725.585,-52.522C-685.41,-32.853 -641.939,-17.214 -596.38,-6.038C-539.917,7.813 -479.974,14.836 -418.217,14.836C-356.46,14.836 -296.518,7.813 -240.055,-6.038C-194.495,-17.214 -151.024,-32.853 -110.85,-52.522C-41.241,-86.6 -4.604,-121.395 -0.654,-125.253C13.787,-139.359 14.083,-162.624 0.004,-177.115L0,-177.12Z" style="fill:white;fill-rule:nonzero;"/>
                            </g>
                            <g transform="matrix(1,0,0,1,1245.55,584.257)">
                                <path d="M0,-108.908C-1.299,-108.491 -132.802,-67.19 -380.534,-67.19C-628.2,-67.19 -759.772,-108.494 -760.992,-108.885C-780.236,-115.185 -801.028,-104.66 -807.336,-85.422C-813.645,-66.176 -803.12,-45.384 -783.872,-39.072C-778.222,-37.22 -642.491,6.277 -380.534,6.277C-118.589,6.277 17.153,-37.22 22.808,-39.073C42.023,-45.376 52.549,-66.148 46.269,-85.382C39.99,-104.599 19.236,-115.148 0,-108.908" style="fill:white;fill-rule:nonzero;"/>
                            </g>
                        </g>
                    </g>
                </g>
            </g>
        </g>
        <g id="footer">
        </g>
        <g id="頁碼">
        </g>
    </g>
</svg>
